compsciX 415.2 Homework 3
…
filter (mpg, cyl==8)

## # A tibble: 70 x 11
##    manufacturer model     displ  year   cyl trans  drv     cty   hwy fl   
##    <chr>        <chr>     <dbl> <int> <int> <chr>  <chr> <int> <int> <chr>
##  1 audi         a6 quatt  4.20  2008     8 auto( 4        16    23 p    
##  2 chevrolet    c1500 su  5.30  2008     8 auto( r        14    20 r    
##  3 chevrolet    c1500 su  5.30  2008     8 auto( r        11    15 e    
##  4 chevrolet    c1500 su  5.30  2008     8 auto( r        14    20 r    
##  5 chevrolet    c1500 su  5.70  1999     8 auto( r        13    17 r    
##  6 chevrolet    c1500 su  6.00  2008     8 auto( r        12    17 r    
##  7 chevrolet    corvette   5.70  1999     8 manua r        16    26 p    
##  8 chevrolet    corvette   5.70  1999     8 auto( r        15    23 p    
##  9 chevrolet    corvette   6.20  2008     8 manua r        16    26 p    
## 10 chevrolet    corvette   6.20  2008     8 auto( r        15    25 p    
## # ... with 60 more rows, and 1 more variable: class <chr>
…
Sect. 5.2.4 Code for exercises 1) 1-7

filter(flights, arr_delay>=120)

## # A tibble: 10,200 x 19
##     year month   day dep_time sched_dep_time dep_delay arr_time
##    <int> <int> <int>    <int>          <int>     <dbl>    <int>
##  1  2013     1     1      811            630     101       1047
##  2  2013     1     1      848           1835     853       1001
##  3  2013     1     1      957            733     144       1056
##  4  2013     1     1     1114            900     134       1447
##  5  2013     1     1     1505           1310     115       1638
##  6  2013     1     1     1525           1340     105       1831
##  7  2013     1     1     1549           1445      64.0     1912
##  8  2013     1     1     1558           1359     119       1718
##  9  2013     1     1     1732           1630      62.0     2028
## 10  2013     1     1     1803           1620     103       2008
## # ... with 10,190 more rows, and 12 more variables: sched_arr_time <int>,
## #   arr_delay <dbl>, carrier <chr>, flight <int>, tailnum <chr>,
## #   origin <chr>, dest <chr>, air_time <dbl>, distance <dbl>, hour <dbl>,
## #   minute <dbl>, time_hour <dttm>

filter(flights, dest=="IAH" | dest=="HOU")

## # A tibble: 9,313 x 19
##     year month   day dep_time sched_dep_time dep_delay arr_time
##    <int> <int> <int>    <int>          <int>     <dbl>    <int>
##  1  2013     1     1      517            515      2.00      830
##  2  2013     1     1      533            529      4.00      850
##  3  2013     1     1      623            627   -  4.00      933
##  4  2013     1     1      728            732   -  4.00     1041
##  5  2013     1     1      739            739      0        1104
##  6  2013     1     1      908            908      0        1228
##  7  2013     1     1     1028           1026      2.00     1350
##  8  2013     1     1     1044           1045   -  1.00     1352
##  9  2013     1     1     1114            900    134        1447
## 10  2013     1     1     1205           1200      5.00     1503
## # ... with 9,303 more rows, and 12 more variables: sched_arr_time <int>,
## #   arr_delay <dbl>, carrier <chr>, flight <int>, tailnum <chr>,
## #   origin <chr>, dest <chr>, air_time <dbl>, distance <dbl>, hour <dbl>,
## #   minute <dbl>, time_hour <dttm>

filter(flights, carrier=="UA" | carrier=="AA" | carrier=="DL")

## # A tibble: 139,504 x 19
##     year month   day dep_time sched_dep_time dep_delay arr_time
##    <int> <int> <int>    <int>          <int>     <dbl>    <int>
##  1  2013     1     1      517            515      2.00      830
##  2  2013     1     1      533            529      4.00      850
##  3  2013     1     1      542            540      2.00      923
##  4  2013     1     1      554            600     -6.00      812
##  5  2013     1     1      554            558     -4.00      740
##  6  2013     1     1      558            600     -2.00      753
##  7  2013     1     1      558            600     -2.00      924
##  8  2013     1     1      558            600     -2.00      923
##  9  2013     1     1      559            600     -1.00      941
## 10  2013     1     1      559            600     -1.00      854
## # ... with 139,494 more rows, and 12 more variables: sched_arr_time <int>,
## #   arr_delay <dbl>, carrier <chr>, flight <int>, tailnum <chr>,
## #   origin <chr>, dest <chr>, air_time <dbl>, distance <dbl>, hour <dbl>,
## #   minute <dbl>, time_hour <dttm>

filter(flights, month==7 | month==8 | month==9)

## # A tibble: 86,326 x 19
##     year month   day dep_time sched_dep_time dep_delay arr_time
##    <int> <int> <int>    <int>          <int>     <dbl>    <int>
##  1  2013     7     1        1           2029    212         236
##  2  2013     7     1        2           2359      3.00      344
##  3  2013     7     1       29           2245    104         151
##  4  2013     7     1       43           2130    193         322
##  5  2013     7     1       44           2150    174         300
##  6  2013     7     1       46           2051    235         304
##  7  2013     7     1       48           2001    287         308
##  8  2013     7     1       58           2155    183         335
##  9  2013     7     1      100           2146    194         327
## 10  2013     7     1      100           2245    135         337
## # ... with 86,316 more rows, and 12 more variables: sched_arr_time <int>,
## #   arr_delay <dbl>, carrier <chr>, flight <int>, tailnum <chr>,
## #   origin <chr>, dest <chr>, air_time <dbl>, distance <dbl>, hour <dbl>,
## #   minute <dbl>, time_hour <dttm>

filter(flights, arr_delay>=120, dep_delay<=0)

## # A tibble: 29 x 19
##     year month   day dep_time sched_dep_time dep_delay arr_time
##    <int> <int> <int>    <int>          <int>     <dbl>    <int>
##  1  2013     1    27     1419           1420     -1.00     1754
##  2  2013    10     7     1350           1350      0        1736
##  3  2013    10     7     1357           1359     -2.00     1858
##  4  2013    10    16      657            700     -3.00     1258
##  5  2013    11     1      658            700     -2.00     1329
##  6  2013     3    18     1844           1847     -3.00       39
##  7  2013     4    17     1635           1640     -5.00     2049
##  8  2013     4    18      558            600     -2.00     1149
##  9  2013     4    18      655            700     -5.00     1213
## 10  2013     5    22     1827           1830     -3.00     2217
## # ... with 19 more rows, and 12 more variables: sched_arr_time <int>,
## #   arr_delay <dbl>, carrier <chr>, flight <int>, tailnum <chr>,
## #   origin <chr>, dest <chr>, air_time <dbl>, distance <dbl>, hour <dbl>,
## #   minute <dbl>, time_hour <dttm>

filter(flights, dep_delay>=60, arr_delay<=30)

## # A tibble: 239 x 19
##     year month   day dep_time sched_dep_time dep_delay arr_time
##    <int> <int> <int>    <int>          <int>     <dbl>    <int>
##  1  2013     1     3     1850           1745      65.0     2148
##  2  2013     1     3     1950           1845      65.0     2228
##  3  2013     1     3     2015           1915      60.0     2135
##  4  2013     1     6     1019            900      79.0     1558
##  5  2013     1     7     1543           1430      73.0     1758
##  6  2013     1    11     1020            920      60.0     1311
##  7  2013     1    12     1706           1600      66.0     1949
##  8  2013     1    12     1953           1845      68.0     2154
##  9  2013     1    19     1456           1355      61.0     1636
## 10  2013     1    21     1531           1430      61.0     1843
## # ... with 229 more rows, and 12 more variables: sched_arr_time <int>,
## #   arr_delay <dbl>, carrier <chr>, flight <int>, tailnum <chr>,
## #   origin <chr>, dest <chr>, air_time <dbl>, distance <dbl>, hour <dbl>,
## #   minute <dbl>, time_hour <dttm>

filter(flights, dep_time>=000, dep_time<=600)

## # A tibble: 9,344 x 19
##     year month   day dep_time sched_dep_time dep_delay arr_time
##    <int> <int> <int>    <int>          <int>     <dbl>    <int>
##  1  2013     1     1      517            515      2.00      830
##  2  2013     1     1      533            529      4.00      850
##  3  2013     1     1      542            540      2.00      923
##  4  2013     1     1      544            545     -1.00     1004
##  5  2013     1     1      554            600     -6.00      812
##  6  2013     1     1      554            558     -4.00      740
##  7  2013     1     1      555            600     -5.00      913
##  8  2013     1     1      557            600     -3.00      709
##  9  2013     1     1      557            600     -3.00      838
## 10  2013     1     1      558            600     -2.00      753
## # ... with 9,334 more rows, and 12 more variables: sched_arr_time <int>,
## #   arr_delay <dbl>, carrier <chr>, flight <int>, tailnum <chr>,
## #   origin <chr>, dest <chr>, air_time <dbl>, distance <dbl>, hour <dbl>,
## #   minute <dbl>, time_hour <dttm>

Sect. 5.2.4 2) In the dply filtering option, between() allows you to filter data inclusively within a range between n and m.

flights %>% filter(between(month, 6, 9))

## # A tibble: 114,569 x 19
##     year month   day dep_time sched_dep_time dep_delay arr_time
##    <int> <int> <int>    <int>          <int>     <dbl>    <int>
##  1  2013     6     1        2           2359      3.00      341
##  2  2013     6     1      451            500    - 9.00      624
##  3  2013     6     1      506            515    - 9.00      715
##  4  2013     6     1      534            545    -11.0       800
##  5  2013     6     1      538            545    - 7.00      925
##  6  2013     6     1      539            540    - 1.00      832
##  7  2013     6     1      546            600    -14.0       850
##  8  2013     6     1      551            600    - 9.00      828
##  9  2013     6     1      552            600    - 8.00      647
## 10  2013     6     1      553            600    - 7.00      700
## # ... with 114,559 more rows, and 12 more variables: sched_arr_time <int>,
## #   arr_delay <dbl>, carrier <chr>, flight <int>, tailnum <chr>,
## #   origin <chr>, dest <chr>, air_time <dbl>, distance <dbl>, hour <dbl>,
## #   minute <dbl>, time_hour <dttm>

flights %>% filter(between(dep_time, 000, 600))

## # A tibble: 9,344 x 19
##     year month   day dep_time sched_dep_time dep_delay arr_time
##    <int> <int> <int>    <int>          <int>     <dbl>    <int>
##  1  2013     1     1      517            515      2.00      830
##  2  2013     1     1      533            529      4.00      850
##  3  2013     1     1      542            540      2.00      923
##  4  2013     1     1      544            545     -1.00     1004
##  5  2013     1     1      554            600     -6.00      812
##  6  2013     1     1      554            558     -4.00      740
##  7  2013     1     1      555            600     -5.00      913
##  8  2013     1     1      557            600     -3.00      709
##  9  2013     1     1      557            600     -3.00      838
## 10  2013     1     1      558            600     -2.00      753
## # ... with 9,334 more rows, and 12 more variables: sched_arr_time <int>,
## #   arr_delay <dbl>, carrier <chr>, flight <int>, tailnum <chr>,
## #   origin <chr>, dest <chr>, air_time <dbl>, distance <dbl>, hour <dbl>,
## #   minute <dbl>, time_hour <dttm>

filter(flights, is.na(dep_time))

## # A tibble: 8,255 x 19
##     year month   day dep_time sched_dep_time dep_delay arr_time
##    <int> <int> <int>    <int>          <int>     <dbl>    <int>
##  1  2013     1     1       NA           1630        NA       NA
##  2  2013     1     1       NA           1935        NA       NA
##  3  2013     1     1       NA           1500        NA       NA
##  4  2013     1     1       NA            600        NA       NA
##  5  2013     1     2       NA           1540        NA       NA
##  6  2013     1     2       NA           1620        NA       NA
##  7  2013     1     2       NA           1355        NA       NA
##  8  2013     1     2       NA           1420        NA       NA
##  9  2013     1     2       NA           1321        NA       NA
## 10  2013     1     2       NA           1545        NA       NA
## # ... with 8,245 more rows, and 12 more variables: sched_arr_time <int>,
## #   arr_delay <dbl>, carrier <chr>, flight <int>, tailnum <chr>,
## #   origin <chr>, dest <chr>, air_time <dbl>, distance <dbl>, hour <dbl>,
## #   minute <dbl>, time_hour <dttm>

Sect.5.2.4 3) 8255 flights have missing departure times. Missing are also dep_delay, arr_time, arr_delay. These are flights that did not take flight.

Sect. 5.2.4 4) NA ^ 0 is not missing because you have set NA to 0, which has a value of 0. NA | TRUE is not missing because NA or TRUE includes TRUE, therefore not missing. FALSE and NA is not missing because it includes FALSE. Missing is only missing if it does not intersect with anything else.

 select(flights, dep_time, dep_delay, arr_time, arr_delay)

## # A tibble: 336,776 x 4
##    dep_time dep_delay arr_time arr_delay
##       <int>     <dbl>    <int>     <dbl>
##  1      517      2.00      830     11.0 
##  2      533      4.00      850     20.0 
##  3      542      2.00      923     33.0 
##  4      544     -1.00     1004    -18.0 
##  5      554     -6.00      812    -25.0 
##  6      554     -4.00      740     12.0 
##  7      555     -5.00      913     19.0 
##  8      557     -3.00      709    -14.0 
##  9      557     -3.00      838    - 8.00
## 10      558     -2.00      753      8.00
## # ... with 336,766 more rows

select(flights, dep_time:arr_delay)

## # A tibble: 336,776 x 6
##    dep_time sched_dep_time dep_delay arr_time sched_arr_time arr_delay
##       <int>          <int>     <dbl>    <int>          <int>     <dbl>
##  1      517            515      2.00      830            819     11.0 
##  2      533            529      4.00      850            830     20.0 
##  3      542            540      2.00      923            850     33.0 
##  4      544            545     -1.00     1004           1022    -18.0 
##  5      554            600     -6.00      812            837    -25.0 
##  6      554            558     -4.00      740            728     12.0 
##  7      555            600     -5.00      913            854     19.0 
##  8      557            600     -3.00      709            723    -14.0 
##  9      557            600     -3.00      838            846    - 8.00
## 10      558            600     -2.00      753            745      8.00
## # ... with 336,766 more rows

Sect. 5.4.1 1) You can select the variables you want directly and list them, or select them within a range of variables, or as partial names like dep_ or arr_.

select(flights, origin, carrier, flight, origin, dest, origin)

## # A tibble: 336,776 x 4
##    origin carrier flight dest 
##    <chr>  <chr>    <int> <chr>
##  1 EWR    UA        1545 IAH  
##  2 LGA    UA        1714 IAH  
##  3 JFK    AA        1141 MIA  
##  4 JFK    B6         725 BQN  
##  5 LGA    DL         461 ATL  
##  6 EWR    UA        1696 ORD  
##  7 EWR    B6         507 FLL  
##  8 LGA    EV        5708 IAD  
##  9 JFK    B6          79 MCO  
## 10 LGA    AA         301 ORD  
## # ... with 336,766 more rows

Sect. 5.4.1. 2) If you include the variable multiple times in select(), it will output the first time the variable appears but not in subsequent times.

vars<-c("year", "month", "day", "dep_delay", "arr_delay")
select(flights,one_of(vars))

## # A tibble: 336,776 x 5
##     year month   day dep_delay arr_delay
##    <int> <int> <int>     <dbl>     <dbl>
##  1  2013     1     1      2.00     11.0 
##  2  2013     1     1      4.00     20.0 
##  3  2013     1     1      2.00     33.0 
##  4  2013     1     1     -1.00    -18.0 
##  5  2013     1     1     -6.00    -25.0 
##  6  2013     1     1     -4.00     12.0 
##  7  2013     1     1     -5.00     19.0 
##  8  2013     1     1     -3.00    -14.0 
##  9  2013     1     1     -3.00    - 8.00
## 10  2013     1     1     -2.00      8.00
## # ... with 336,766 more rows

Sect. 5.4.1. 3) one_of() is part of the helper function of select(). It selects any variables that you have already defined as vars in the above example. It is good to use once you have created a batch of variables and selected/renamed them.

select(flights, contains("TIME"))

## # A tibble: 336,776 x 6
##    dep_time sched_dep_time arr_time sched_arr_time air_time
##       <int>          <int>    <int>          <int>    <dbl>
##  1      517            515      830            819    227  
##  2      533            529      850            830    227  
##  3      542            540      923            850    160  
##  4      544            545     1004           1022    183  
##  5      554            600      812            837    116  
##  6      554            558      740            728    150  
##  7      555            600      913            854    158  
##  8      557            600      709            723     53.0
##  9      557            600      838            846    140  
## 10      558            600      753            745    138  
## # ... with 336,766 more rows, and 1 more variable: time_hour <dttm>
…
