COMPSCIX 415.2 Homework 5/Midterm
…
2) diamonds with price per carat

library(dplyr)

mutate(diamonds, price_per_carat = price/carat)

## # A tibble: 53,940 x 11
##    carat cut       color clarity depth table price     x     y     z
##    <dbl> <ord>     <ord> <ord>   <dbl> <dbl> <int> <dbl> <dbl> <dbl>
##  1 0.230 Ideal     E     SI2      61.5  55.0   326  3.95  3.98  2.43
##  2 0.210 Premium   E     SI1      59.8  61.0   326  3.89  3.84  2.31
##  3 0.230 Good      E     VS1      56.9  65.0   327  4.05  4.07  2.31
##  4 0.290 Premium   I     VS2      62.4  58.0   334  4.20  4.23  2.63
##  5 0.310 Good      J     SI2      63.3  58.0   335  4.34  4.35  2.75
##  6 0.240 Very Good J     VVS2     62.8  57.0   336  3.94  3.96  2.48
##  7 0.240 Very Good I     VVS1     62.3  57.0   336  3.95  3.98  2.47
##  8 0.260 Very Good H     SI1      61.9  55.0   337  4.07  4.11  2.53
##  9 0.220 Fair      E     VS2      65.1  61.0   337  3.87  3.78  2.49
## 10 0.230 Very Good H     VS1      59.4  61.0   338  4.00  4.05  2.39
## # ... with 53,930 more rows, and 1 more variable: price_per_carat <dbl>

diamonds

## # A tibble: 53,940 x 10
##    carat cut       color clarity depth table price     x     y     z
##    <dbl> <ord>     <ord> <ord>   <dbl> <dbl> <int> <dbl> <dbl> <dbl>
##  1 0.230 Ideal     E     SI2      61.5  55.0   326  3.95  3.98  2.43
##  2 0.210 Premium   E     SI1      59.8  61.0   326  3.89  3.84  2.31
##  3 0.230 Good      E     VS1      56.9  65.0   327  4.05  4.07  2.31
##  4 0.290 Premium   I     VS2      62.4  58.0   334  4.20  4.23  2.63
##  5 0.310 Good      J     SI2      63.3  58.0   335  4.34  4.35  2.75
##  6 0.240 Very Good J     VVS2     62.8  57.0   336  3.94  3.96  2.48
##  7 0.240 Very Good I     VVS1     62.3  57.0   336  3.95  3.98  2.47
##  8 0.260 Very Good H     SI1      61.9  55.0   337  4.07  4.11  2.53
##  9 0.220 Fair      E     VS2      65.1  61.0   337  3.87  3.78  2.49
## 10 0.230 Very Good H     VS1      59.4  61.0   338  4.00  4.05  2.39
## # ... with 53,930 more rows
…
library(nycflights13)

flights_sml <- select(flights, 
  year:day, 
  ends_with("delay"), 
  distance, 
  air_time
)
mutate(flights_sml,
  gain = arr_delay - dep_delay,
  speed = distance / air_time * 60
)

## # A tibble: 336,776 x 9
##     year month   day dep_delay arr_delay distance air_time   gain speed
##    <int> <int> <int>     <dbl>     <dbl>    <dbl>    <dbl>  <dbl> <dbl>
##  1  2013     1     1      2.00     11.0      1400    227     9.00   370
##  2  2013     1     1      4.00     20.0      1416    227    16.0    374
##  3  2013     1     1      2.00     33.0      1089    160    31.0    408
##  4  2013     1     1     -1.00    -18.0      1576    183   -17.0    517
##  5  2013     1     1     -6.00    -25.0       762    116   -19.0    394
##  6  2013     1     1     -4.00     12.0       719    150    16.0    288
##  7  2013     1     1     -5.00     19.0      1065    158    24.0    404
##  8  2013     1     1     -3.00    -14.0       229     53.0 -11.0    259
##  9  2013     1     1     -3.00    - 8.00      944    140   - 5.00   405
## 10  2013     1     1     -2.00      8.00      733    138    10.0    319
## # ... with 336,766 more rows
…
